C:\Users\user\Desktop\tdolnikova\pm-12\tm-client\src\main\java\com\dolnikova\tm\endpoint\package-info.java
C:\Users\user\Desktop\tdolnikova\pm-12\tm-client\src\main\java\com\dolnikova\tm\endpoint\RemoveTask.java
C:\Users\user\Desktop\tdolnikova\pm-12\tm-client\src\main\java\com\dolnikova\tm\util\HashUtil.java
C:\Users\user\Desktop\tdolnikova\pm-12\tm-client\src\main\java\com\dolnikova\tm\endpoint\FindAllProjectResponse.java
C:\Users\user\Desktop\tdolnikova\pm-12\tm-client\src\main\java\com\dolnikova\tm\command\project\ProjectMergeCommand.java
C:\Users\user\Desktop\tdolnikova\pm-12\tm-client\src\main\java\com\dolnikova\tm\endpoint\LoadFasterxmlXmlProjectResponse.java
C:\Users\user\Desktop\tdolnikova\pm-12\tm-client\src\main\java\com\dolnikova\tm\command\task\TaskFindAllCommand.java
C:\Users\user\Desktop\tdolnikova\pm-12\tm-client\src\main\java\com\dolnikova\tm\entity\User.java
C:\Users\user\Desktop\tdolnikova\pm-12\tm-client\src\main\java\com\dolnikova\tm\command\project\ProjectFindOneCommand.java
C:\Users\user\Desktop\tdolnikova\pm-12\tm-client\src\main\java\com\dolnikova\tm\endpoint\SessionEndpoint.java
C:\Users\user\Desktop\tdolnikova\pm-12\tm-client\src\main\java\com\dolnikova\tm\endpoint\MergeProjectResponse.java
C:\Users\user\Desktop\tdolnikova\pm-12\tm-client\src\main\java\com\dolnikova\tm\endpoint\FindOneByIdProjectResponse.java
C:\Users\user\Desktop\tdolnikova\pm-12\tm-client\src\main\java\com\dolnikova\tm\endpoint\FindOneByIdProject.java
C:\Users\user\Desktop\tdolnikova\pm-12\tm-client\src\main\java\com\dolnikova\tm\endpoint\LoadBinUserResponse.java
C:\Users\user\Desktop\tdolnikova\pm-12\tm-client\src\main\java\com\dolnikova\tm\endpoint\LoadFasterxmlXmlTaskResponse.java
C:\Users\user\Desktop\tdolnikova\pm-12\tm-client\src\main\java\com\dolnikova\tm\endpoint\FindAllByDescriptionProject.java
C:\Users\user\Desktop\tdolnikova\pm-12\tm-client\src\main\java\com\dolnikova\tm\endpoint\FindOneByNameTask.java
C:\Users\user\Desktop\tdolnikova\pm-12\tm-client\src\main\java\com\dolnikova\tm\endpoint\FindAllTask.java
C:\Users\user\Desktop\tdolnikova\pm-12\tm-client\src\main\java\com\dolnikova\tm\endpoint\LoadFasterxmlJsonTask.java
C:\Users\user\Desktop\tdolnikova\pm-12\tm-client\src\main\java\com\dolnikova\tm\endpoint\SaveFasterxmlXmlTask.java
C:\Users\user\Desktop\tdolnikova\pm-12\tm-client\src\main\java\com\dolnikova\tm\command\project\ProjectPersistCommand.java
C:\Users\user\Desktop\tdolnikova\pm-12\tm-client\src\main\java\com\dolnikova\tm\endpoint\DataType.java
C:\Users\user\Desktop\tdolnikova\pm-12\tm-client\src\main\java\com\dolnikova\tm\endpoint\SaveJaxbJsonUser.java
C:\Users\user\Desktop\tdolnikova\pm-12\tm-client\src\main\java\com\dolnikova\tm\endpoint\LoadJaxbJsonUserResponse.java
C:\Users\user\Desktop\tdolnikova\pm-12\tm-client\src\main\java\com\dolnikova\tm\endpoint\SaveBinUserResponse.java
C:\Users\user\Desktop\tdolnikova\pm-12\tm-client\src\main\java\com\dolnikova\tm\endpoint\FindOneByLoginUser.java
C:\Users\user\Desktop\tdolnikova\pm-12\tm-client\src\main\java\com\dolnikova\tm\endpoint\LoadFasterxmlJsonSession.java
C:\Users\user\Desktop\tdolnikova\pm-12\tm-client\src\main\java\com\dolnikova\tm\endpoint\FindAllUserResponse.java
C:\Users\user\Desktop\tdolnikova\pm-12\tm-client\src\main\java\com\dolnikova\tm\endpoint\LoadBinUser.java
C:\Users\user\Desktop\tdolnikova\pm-12\tm-client\src\main\java\com\dolnikova\tm\command\user\UserAuthCommand.java
C:\Users\user\Desktop\tdolnikova\pm-12\tm-client\src\main\java\com\dolnikova\tm\command\data\DataSaveFasterxmlXmlCommand.java
C:\Users\user\Desktop\tdolnikova\pm-12\tm-client\src\main\java\com\dolnikova\tm\endpoint\SaveFasterxmlXmlProjectResponse.java
C:\Users\user\Desktop\tdolnikova\pm-12\tm-client\src\main\java\com\dolnikova\tm\endpoint\SaveJaxbXmlTaskResponse.java
C:\Users\user\Desktop\tdolnikova\pm-12\tm-client\src\main\java\com\dolnikova\tm\endpoint\SaveFasterxmlJsonSessionResponse.java
C:\Users\user\Desktop\tdolnikova\pm-12\tm-client\src\main\java\com\dolnikova\tm\endpoint\SaveBinSessionResponse.java
C:\Users\user\Desktop\tdolnikova\pm-12\tm-client\src\main\java\com\dolnikova\tm\endpoint\FindOneByNameProjectResponse.java
C:\Users\user\Desktop\tdolnikova\pm-12\tm-client\src\main\java\com\dolnikova\tm\endpoint\SaveFasterxmlXmlSession.java
C:\Users\user\Desktop\tdolnikova\pm-12\tm-client\src\main\java\com\dolnikova\tm\command\project\ProjectFindByDescriptionCommand.java
C:\Users\user\Desktop\tdolnikova\pm-12\tm-client\src\main\java\com\dolnikova\tm\endpoint\SaveFasterxmlXmlUserResponse.java
C:\Users\user\Desktop\tdolnikova\pm-12\tm-client\src\main\java\com\dolnikova\tm\command\data\DataSaveBinCommand.java
C:\Users\user\Desktop\tdolnikova\pm-12\tm-client\src\main\java\com\dolnikova\tm\command\project\ProjectSortListCommand.java
C:\Users\user\Desktop\tdolnikova\pm-12\tm-client\src\main\java\com\dolnikova\tm\command\data\DataLoadFasterxmlXmlCommand.java
C:\Users\user\Desktop\tdolnikova\pm-12\tm-client\src\main\java\com\dolnikova\tm\endpoint\LoadJaxbXmlTaskResponse.java
C:\Users\user\Desktop\tdolnikova\pm-12\tm-client\src\main\java\com\dolnikova\tm\endpoint\LoadFasterxmlJsonTaskResponse.java
C:\Users\user\Desktop\tdolnikova\pm-12\tm-client\src\main\java\com\dolnikova\tm\endpoint\SaveBinTask.java
C:\Users\user\Desktop\tdolnikova\pm-12\tm-client\src\main\java\com\dolnikova\tm\endpoint\PersistListTaskResponse.java
C:\Users\user\Desktop\tdolnikova\pm-12\tm-client\src\main\java\com\dolnikova\tm\endpoint\LoadFasterxmlXmlSession.java
C:\Users\user\Desktop\tdolnikova\pm-12\tm-client\src\main\java\com\dolnikova\tm\endpoint\LoadJaxbXmlProject.java
C:\Users\user\Desktop\tdolnikova\pm-12\tm-client\src\main\java\com\dolnikova\tm\command\data\DataLoadFasterxmlJsonCommand.java
C:\Users\user\Desktop\tdolnikova\pm-12\tm-client\src\main\java\com\dolnikova\tm\endpoint\LoadJaxbXmlTask.java
C:\Users\user\Desktop\tdolnikova\pm-12\tm-client\src\main\java\com\dolnikova\tm\command\data\DataSaveJaxbJsonCommand.java
C:\Users\user\Desktop\tdolnikova\pm-12\tm-client\src\main\java\com\dolnikova\tm\endpoint\SaveFasterxmlJsonProjectResponse.java
C:\Users\user\Desktop\tdolnikova\pm-12\tm-client\src\main\java\com\dolnikova\tm\endpoint\LoadBinTaskResponse.java
C:\Users\user\Desktop\tdolnikova\pm-12\tm-client\src\main\java\com\dolnikova\tm\command\task\TaskFindByDescriptionCommand.java
C:\Users\user\Desktop\tdolnikova\pm-12\tm-client\src\main\java\com\dolnikova\tm\endpoint\SaveBinProjectResponse.java
C:\Users\user\Desktop\tdolnikova\pm-12\tm-client\src\main\java\com\dolnikova\tm\endpoint\RemoveAllProjectResponse.java
C:\Users\user\Desktop\tdolnikova\pm-12\tm-client\src\main\java\com\dolnikova\tm\endpoint\SaveJaxbXmlUser.java
C:\Users\user\Desktop\tdolnikova\pm-12\tm-client\src\main\java\com\dolnikova\tm\endpoint\FindOneByIdTask.java
C:\Users\user\Desktop\tdolnikova\pm-12\tm-client\src\main\java\com\dolnikova\tm\endpoint\FindOneByLoginUserResponse.java
C:\Users\user\Desktop\tdolnikova\pm-12\tm-client\src\main\java\com\dolnikova\tm\command\user\UserSignOutCommand.java
C:\Users\user\Desktop\tdolnikova\pm-12\tm-client\src\main\java\com\dolnikova\tm\ProjectComparator.java
C:\Users\user\Desktop\tdolnikova\pm-12\tm-client\src\main\java\com\dolnikova\tm\endpoint\FindOneByNameProject.java
C:\Users\user\Desktop\tdolnikova\pm-12\tm-client\src\main\java\com\dolnikova\tm\command\data\DataSaveFasterxmlJsonCommand.java
C:\Users\user\Desktop\tdolnikova\pm-12\tm-client\src\main\java\com\dolnikova\tm\endpoint\LoadFasterxmlJsonProject.java
C:\Users\user\Desktop\tdolnikova\pm-12\tm-client\src\main\java\com\dolnikova\tm\endpoint\UserEndpointService.java
C:\Users\user\Desktop\tdolnikova\pm-12\tm-client\src\main\java\com\dolnikova\tm\api\ServiceLocator.java
C:\Users\user\Desktop\tdolnikova\pm-12\tm-client\src\main\java\com\dolnikova\tm\endpoint\SaveFasterxmlJsonProject.java
C:\Users\user\Desktop\tdolnikova\pm-12\tm-client\src\main\java\com\dolnikova\tm\endpoint\SaveBinSession.java
C:\Users\user\Desktop\tdolnikova\pm-12\tm-client\src\main\java\com\dolnikova\tm\endpoint\SaveFasterxmlJsonSession.java
C:\Users\user\Desktop\tdolnikova\pm-12\tm-client\src\main\java\com\dolnikova\tm\endpoint\SaveFasterxmlXmlProject.java
C:\Users\user\Desktop\tdolnikova\pm-12\tm-client\src\main\java\com\dolnikova\tm\endpoint\SaveBinTaskResponse.java
C:\Users\user\Desktop\tdolnikova\pm-12\tm-client\src\main\java\com\dolnikova\tm\endpoint\FindAllTaskResponse.java
C:\Users\user\Desktop\tdolnikova\pm-12\tm-client\src\main\java\com\dolnikova\tm\endpoint\SaveFasterxmlJsonUserResponse.java
C:\Users\user\Desktop\tdolnikova\pm-12\tm-client\src\main\java\com\dolnikova\tm\endpoint\LoadFasterxmlXmlUser.java
C:\Users\user\Desktop\tdolnikova\pm-12\tm-client\src\main\java\com\dolnikova\tm\endpoint\SaveJaxbJsonUserResponse.java
C:\Users\user\Desktop\tdolnikova\pm-12\tm-client\src\main\java\com\dolnikova\tm\endpoint\LoadFasterxmlXmlSessionResponse.java
C:\Users\user\Desktop\tdolnikova\pm-12\tm-client\src\main\java\com\dolnikova\tm\endpoint\FindAllByNameTask.java
C:\Users\user\Desktop\tdolnikova\pm-12\tm-client\src\main\java\com\dolnikova\tm\endpoint\RemoveAllTaskResponse.java
C:\Users\user\Desktop\tdolnikova\pm-12\tm-client\src\main\java\com\dolnikova\tm\endpoint\SaveBinProject.java
C:\Users\user\Desktop\tdolnikova\pm-12\tm-client\src\main\java\com\dolnikova\tm\endpoint\ProjectEndpoint.java
C:\Users\user\Desktop\tdolnikova\pm-12\tm-client\src\main\java\com\dolnikova\tm\endpoint\LoadFasterxmlXmlTask.java
C:\Users\user\Desktop\tdolnikova\pm-12\tm-client\src\main\java\com\dolnikova\tm\endpoint\PersistListProjectResponse.java
C:\Users\user\Desktop\tdolnikova\pm-12\tm-client\src\main\java\com\dolnikova\tm\command\user\UserChangePasswordCommand.java
C:\Users\user\Desktop\tdolnikova\pm-12\tm-client\src\main\java\com\dolnikova\tm\exception\NoAuthorizationException.java
C:\Users\user\Desktop\tdolnikova\pm-12\tm-client\src\main\java\com\dolnikova\tm\endpoint\PersistListUserResponse.java
C:\Users\user\Desktop\tdolnikova\pm-12\tm-client\src\main\java\com\dolnikova\tm\endpoint\LoadJaxbXmlUserResponse.java
C:\Users\user\Desktop\tdolnikova\pm-12\tm-client\src\main\java\com\dolnikova\tm\command\exit\ExitCommand.java
C:\Users\user\Desktop\tdolnikova\pm-12\tm-client\src\main\java\com\dolnikova\tm\command\task\TaskRemoveAllCommand.java
C:\Users\user\Desktop\tdolnikova\pm-12\tm-client\src\main\java\com\dolnikova\tm\endpoint\TaskEndpoint.java
C:\Users\user\Desktop\tdolnikova\pm-12\tm-client\src\main\java\com\dolnikova\tm\endpoint\FindAllByDescriptionProjectResponse.java
C:\Users\user\Desktop\tdolnikova\pm-12\tm-client\src\main\java\com\dolnikova\tm\endpoint\FindOneByIdUser.java
C:\Users\user\Desktop\tdolnikova\pm-12\tm-client\src\main\java\com\dolnikova\tm\endpoint\LoadFasterxmlJsonUserResponse.java
C:\Users\user\Desktop\tdolnikova\pm-12\tm-client\src\main\java\com\dolnikova\tm\endpoint\SessionEndpointService.java
C:\Users\user\Desktop\tdolnikova\pm-12\tm-client\src\main\java\com\dolnikova\tm\endpoint\LoadJaxbXmlUser.java
C:\Users\user\Desktop\tdolnikova\pm-12\tm-client\src\main\java\com\dolnikova\tm\endpoint\FindAllByLoginUser.java
C:\Users\user\Desktop\tdolnikova\pm-12\tm-client\src\main\java\com\dolnikova\tm\enumerated\Status.java
C:\Users\user\Desktop\tdolnikova\pm-12\tm-client\src\main\java\com\dolnikova\tm\endpoint\MergeUser.java
C:\Users\user\Desktop\tdolnikova\pm-12\tm-client\src\main\java\com\dolnikova\tm\endpoint\LoadFasterxmlXmlProject.java
C:\Users\user\Desktop\tdolnikova\pm-12\tm-client\src\main\java\com\dolnikova\tm\endpoint\SaveFasterxmlXmlTaskResponse.java
C:\Users\user\Desktop\tdolnikova\pm-12\tm-client\src\main\java\com\dolnikova\tm\enumerated\Role.java
C:\Users\user\Desktop\tdolnikova\pm-12\tm-client\src\main\java\com\dolnikova\tm\endpoint\MergeTask.java
C:\Users\user\Desktop\tdolnikova\pm-12\tm-client\src\main\java\com\dolnikova\tm\entity\Task.java
C:\Users\user\Desktop\tdolnikova\pm-12\tm-client\src\main\java\com\dolnikova\tm\endpoint\SaveJaxbXmlSessionResponse.java
C:\Users\user\Desktop\tdolnikova\pm-12\tm-client\src\main\java\com\dolnikova\tm\endpoint\RemoveUser.java
C:\Users\user\Desktop\tdolnikova\pm-12\tm-client\src\main\java\com\dolnikova\tm\endpoint\FindAllByNameProject.java
C:\Users\user\Desktop\tdolnikova\pm-12\tm-client\src\main\java\com\dolnikova\tm\endpoint\FindAllByNameTaskResponse.java
C:\Users\user\Desktop\tdolnikova\pm-12\tm-client\src\main\java\com\dolnikova\tm\command\user\UserEditProfileCommand.java
C:\Users\user\Desktop\tdolnikova\pm-12\tm-client\src\main\java\com\dolnikova\tm\endpoint\FindAllByNameProjectResponse.java
C:\Users\user\Desktop\tdolnikova\pm-12\tm-client\src\main\java\com\dolnikova\tm\endpoint\LoadBinSessionResponse.java
C:\Users\user\Desktop\tdolnikova\pm-12\tm-client\src\main\java\com\dolnikova\tm\endpoint\ObjectFactory.java
C:\Users\user\Desktop\tdolnikova\pm-12\tm-client\src\main\java\com\dolnikova\tm\endpoint\SaveFasterxmlXmlSessionResponse.java
C:\Users\user\Desktop\tdolnikova\pm-12\tm-client\src\main\java\com\dolnikova\tm\entity\Session.java
C:\Users\user\Desktop\tdolnikova\pm-12\tm-client\src\main\java\com\dolnikova\tm\TaskComparator.java
C:\Users\user\Desktop\tdolnikova\pm-12\tm-client\src\main\java\com\dolnikova\tm\command\task\TaskPersistCommand.java
C:\Users\user\Desktop\tdolnikova\pm-12\tm-client\src\main\java\com\dolnikova\tm\endpoint\LoadJaxbJsonSessionResponse.java
C:\Users\user\Desktop\tdolnikova\pm-12\tm-client\src\main\java\com\dolnikova\tm\command\task\TaskFindOneCommand.java
C:\Users\user\Desktop\tdolnikova\pm-12\tm-client\src\main\java\com\dolnikova\tm\endpoint\LoadJaxbXmlSession.java
C:\Users\user\Desktop\tdolnikova\pm-12\tm-client\src\main\java\com\dolnikova\tm\endpoint\LoadFasterxmlJsonUser.java
C:\Users\user\Desktop\tdolnikova\pm-12\tm-client\src\main\java\com\dolnikova\tm\command\task\TaskSortListCommand.java
C:\Users\user\Desktop\tdolnikova\pm-12\tm-client\src\main\java\com\dolnikova\tm\endpoint\LoadBinSession.java
C:\Users\user\Desktop\tdolnikova\pm-12\tm-client\src\main\java\com\dolnikova\tm\endpoint\MergeUserResponse.java
C:\Users\user\Desktop\tdolnikova\pm-12\tm-client\src\main\java\com\dolnikova\tm\bootstrap\Bootstrap.java
C:\Users\user\Desktop\tdolnikova\pm-12\tm-client\src\main\java\com\dolnikova\tm\endpoint\SaveJaxbJsonSessionResponse.java
C:\Users\user\Desktop\tdolnikova\pm-12\tm-client\src\main\java\com\dolnikova\tm\endpoint\LoadFasterxmlJsonSessionResponse.java
C:\Users\user\Desktop\tdolnikova\pm-12\tm-client\src\main\java\com\dolnikova\tm\endpoint\SaveJaxbJsonSession.java
C:\Users\user\Desktop\tdolnikova\pm-12\tm-client\src\main\java\com\dolnikova\tm\command\task\TaskFindByNameCommand.java
C:\Users\user\Desktop\tdolnikova\pm-12\tm-client\src\main\java\com\dolnikova\tm\enumerated\SortingType.java
C:\Users\user\Desktop\tdolnikova\pm-12\tm-client\src\main\java\com\dolnikova\tm\endpoint\FindAllProject.java
C:\Users\user\Desktop\tdolnikova\pm-12\tm-client\src\main\java\com\dolnikova\tm\endpoint\CheckPasswordResponse.java
C:\Users\user\Desktop\tdolnikova\pm-12\tm-client\src\main\java\com\dolnikova\tm\constant\AdditionalMessage.java
C:\Users\user\Desktop\tdolnikova\pm-12\tm-client\src\main\java\com\dolnikova\tm\endpoint\FindOneByIdUserResponse.java
C:\Users\user\Desktop\tdolnikova\pm-12\tm-client\src\main\java\com\dolnikova\tm\constant\Command.java
C:\Users\user\Desktop\tdolnikova\pm-12\tm-client\src\main\java\com\dolnikova\tm\endpoint\SaveFasterxmlJsonTaskResponse.java
C:\Users\user\Desktop\tdolnikova\pm-12\tm-client\src\main\java\com\dolnikova\tm\endpoint\FindAllUser.java
C:\Users\user\Desktop\tdolnikova\pm-12\tm-client\src\main\java\com\dolnikova\tm\endpoint\MergeProject.java
C:\Users\user\Desktop\tdolnikova\pm-12\tm-client\src\main\java\com\dolnikova\tm\command\data\DataLoadJaxbJsonCommand.java
C:\Users\user\Desktop\tdolnikova\pm-12\tm-client\src\main\java\com\dolnikova\tm\endpoint\SaveJaxbXmlProjectResponse.java
C:\Users\user\Desktop\tdolnikova\pm-12\tm-client\src\main\java\com\dolnikova\tm\entity\EntityDTO.java
C:\Users\user\Desktop\tdolnikova\pm-12\tm-client\src\main\java\com\dolnikova\tm\endpoint\LoadBinTask.java
C:\Users\user\Desktop\tdolnikova\pm-12\tm-client\src\main\java\com\dolnikova\tm\endpoint\LoadBinProjectResponse.java
C:\Users\user\Desktop\tdolnikova\pm-12\tm-client\src\main\java\com\dolnikova\tm\command\user\UserFindProfileCommand.java
C:\Users\user\Desktop\tdolnikova\pm-12\tm-client\src\main\java\com\dolnikova\tm\endpoint\PersistListProject.java
C:\Users\user\Desktop\tdolnikova\pm-12\tm-client\src\main\java\com\dolnikova\tm\endpoint\SaveJaxbJsonProject.java
C:\Users\user\Desktop\tdolnikova\pm-12\tm-client\src\main\java\com\dolnikova\tm\endpoint\SaveJaxbXmlProject.java
C:\Users\user\Desktop\tdolnikova\pm-12\tm-client\src\main\java\com\dolnikova\tm\endpoint\SaveJaxbJsonTask.java
C:\Users\user\Desktop\tdolnikova\pm-12\tm-client\src\main\java\com\dolnikova\tm\exception\CommandCorruptException.java
C:\Users\user\Desktop\tdolnikova\pm-12\tm-client\src\main\java\com\dolnikova\tm\endpoint\SaveJaxbJsonTaskResponse.java
C:\Users\user\Desktop\tdolnikova\pm-12\tm-client\src\main\java\com\dolnikova\tm\endpoint\UserEndpoint.java
C:\Users\user\Desktop\tdolnikova\pm-12\tm-client\src\main\java\com\dolnikova\tm\endpoint\Status.java
C:\Users\user\Desktop\tdolnikova\pm-12\tm-client\src\main\java\com\dolnikova\tm\endpoint\TaskEndpointService.java
C:\Users\user\Desktop\tdolnikova\pm-12\tm-client\src\main\java\com\dolnikova\tm\endpoint\SaveFasterxmlXmlUser.java
C:\Users\user\Desktop\tdolnikova\pm-12\tm-client\src\main\java\com\dolnikova\tm\command\task\TaskMergeCommand.java
C:\Users\user\Desktop\tdolnikova\pm-12\tm-client\src\main\java\com\dolnikova\tm\endpoint\LoadJaxbXmlSessionResponse.java
C:\Users\user\Desktop\tdolnikova\pm-12\tm-client\src\main\java\com\dolnikova\tm\endpoint\SaveJaxbXmlSession.java
C:\Users\user\Desktop\tdolnikova\pm-12\tm-client\src\main\java\com\dolnikova\tm\endpoint\GetSessionResponse.java
C:\Users\user\Desktop\tdolnikova\pm-12\tm-client\src\main\java\com\dolnikova\tm\endpoint\RemoveUserResponse.java
C:\Users\user\Desktop\tdolnikova\pm-12\tm-client\src\main\java\com\dolnikova\tm\util\DateUtil.java
C:\Users\user\Desktop\tdolnikova\pm-12\tm-client\src\main\java\com\dolnikova\tm\endpoint\SaveJaxbXmlTask.java
C:\Users\user\Desktop\tdolnikova\pm-12\tm-client\src\main\java\com\dolnikova\tm\endpoint\FindOneBySessionResponse.java
C:\Users\user\Desktop\tdolnikova\pm-12\tm-client\src\main\java\com\dolnikova\tm\endpoint\LoadJaxbJsonProject.java
C:\Users\user\Desktop\tdolnikova\pm-12\tm-client\src\main\java\com\dolnikova\tm\command\about\AboutCommand.java
C:\Users\user\Desktop\tdolnikova\pm-12\tm-client\src\main\java\com\dolnikova\tm\endpoint\RemoveAllUserResponse.java
C:\Users\user\Desktop\tdolnikova\pm-12\tm-client\src\main\java\com\dolnikova\tm\endpoint\LoadBinProject.java
C:\Users\user\Desktop\tdolnikova\pm-12\tm-client\src\main\java\com\dolnikova\tm\endpoint\RemoveProjectResponse.java
C:\Users\user\Desktop\tdolnikova\pm-12\tm-client\src\main\java\com\dolnikova\tm\endpoint\SaveBinUser.java
C:\Users\user\Desktop\tdolnikova\pm-12\tm-client\src\main\java\com\dolnikova\tm\endpoint\Session.java
C:\Users\user\Desktop\tdolnikova\pm-12\tm-client\src\main\java\com\dolnikova\tm\endpoint\RemoveAllProject.java
C:\Users\user\Desktop\tdolnikova\pm-12\tm-client\src\main\java\com\dolnikova\tm\command\AbstractCommand.java
C:\Users\user\Desktop\tdolnikova\pm-12\tm-client\src\main\java\com\dolnikova\tm\endpoint\PersistTaskResponse.java
C:\Users\user\Desktop\tdolnikova\pm-12\tm-client\src\main\java\com\dolnikova\tm\api\service\IDtoService.java
C:\Users\user\Desktop\tdolnikova\pm-12\tm-client\src\main\java\com\dolnikova\tm\command\task\TaskRemoveCommand.java
C:\Users\user\Desktop\tdolnikova\pm-12\tm-client\src\main\java\com\dolnikova\tm\endpoint\PersistProjectResponse.java
C:\Users\user\Desktop\tdolnikova\pm-12\tm-client\src\main\java\com\dolnikova\tm\endpoint\LoadJaxbXmlProjectResponse.java
C:\Users\user\Desktop\tdolnikova\pm-12\tm-client\src\main\java\com\dolnikova\tm\endpoint\PersistListTask.java
C:\Users\user\Desktop\tdolnikova\pm-12\tm-client\src\main\java\com\dolnikova\tm\endpoint\PersistListUser.java
C:\Users\user\Desktop\tdolnikova\pm-12\tm-client\src\main\java\com\dolnikova\tm\command\user\UserRegisterCommand.java
C:\Users\user\Desktop\tdolnikova\pm-12\tm-client\src\main\java\com\dolnikova\tm\command\help\HelpCommand.java
C:\Users\user\Desktop\tdolnikova\pm-12\tm-client\src\main\java\com\dolnikova\tm\endpoint\FindAllByLoginUserResponse.java
C:\Users\user\Desktop\tdolnikova\pm-12\tm-client\src\main\java\com\dolnikova\tm\constant\General.java
C:\Users\user\Desktop\tdolnikova\pm-12\tm-client\src\main\java\com\dolnikova\tm\endpoint\FindOneByIdSession.java
C:\Users\user\Desktop\tdolnikova\pm-12\tm-client\src\main\java\com\dolnikova\tm\endpoint\LoadJaxbJsonUser.java
C:\Users\user\Desktop\tdolnikova\pm-12\tm-client\src\main\java\com\dolnikova\tm\endpoint\MergeTaskResponse.java
C:\Users\user\Desktop\tdolnikova\pm-12\tm-client\src\main\java\com\dolnikova\tm\endpoint\LoadFasterxmlXmlUserResponse.java
C:\Users\user\Desktop\tdolnikova\pm-12\tm-client\src\main\java\com\dolnikova\tm\endpoint\Project.java
C:\Users\user\Desktop\tdolnikova\pm-12\tm-client\src\main\java\com\dolnikova\tm\command\data\DataLoadJaxbXmlCommand.java
C:\Users\user\Desktop\tdolnikova\pm-12\tm-client\src\main\java\com\dolnikova\tm\endpoint\SaveFasterxmlJsonTask.java
C:\Users\user\Desktop\tdolnikova\pm-12\tm-client\src\main\java\com\dolnikova\tm\endpoint\ProjectEndpointService.java
C:\Users\user\Desktop\tdolnikova\pm-12\tm-client\src\main\java\com\dolnikova\tm\entity\Project.java
C:\Users\user\Desktop\tdolnikova\pm-12\tm-client\src\main\java\com\dolnikova\tm\Application.java
C:\Users\user\Desktop\tdolnikova\pm-12\tm-client\src\main\java\com\dolnikova\tm\endpoint\SaveJaxbJsonProjectResponse.java
C:\Users\user\Desktop\tdolnikova\pm-12\tm-client\src\main\java\com\dolnikova\tm\endpoint\LoadJaxbJsonTask.java
C:\Users\user\Desktop\tdolnikova\pm-12\tm-client\src\main\java\com\dolnikova\tm\endpoint\LoadJaxbJsonSession.java
C:\Users\user\Desktop\tdolnikova\pm-12\tm-client\src\main\java\com\dolnikova\tm\enumerated\DataType.java
C:\Users\user\Desktop\tdolnikova\pm-12\tm-client\src\main\java\com\dolnikova\tm\command\project\ProjectRemoveAllCommand.java
C:\Users\user\Desktop\tdolnikova\pm-12\tm-client\src\main\java\com\dolnikova\tm\endpoint\Exception_Exception.java
C:\Users\user\Desktop\tdolnikova\pm-12\tm-client\src\main\java\com\dolnikova\tm\endpoint\SaveJaxbXmlUserResponse.java
C:\Users\user\Desktop\tdolnikova\pm-12\tm-client\src\main\java\com\dolnikova\tm\endpoint\FindOneByNameTaskResponse.java
C:\Users\user\Desktop\tdolnikova\pm-12\tm-client\src\main\java\com\dolnikova\tm\endpoint\PersistTask.java
C:\Users\user\Desktop\tdolnikova\pm-12\tm-client\src\main\java\com\dolnikova\tm\endpoint\FindOneByIdTaskResponse.java
C:\Users\user\Desktop\tdolnikova\pm-12\tm-client\src\main\java\com\dolnikova\tm\endpoint\PersistUser.java
C:\Users\user\Desktop\tdolnikova\pm-12\tm-client\src\main\java\com\dolnikova\tm\endpoint\RemoveAllTask.java
C:\Users\user\Desktop\tdolnikova\pm-12\tm-client\src\main\java\com\dolnikova\tm\endpoint\LoadJaxbJsonTaskResponse.java
C:\Users\user\Desktop\tdolnikova\pm-12\tm-client\src\main\java\com\dolnikova\tm\endpoint\PersistProject.java
C:\Users\user\Desktop\tdolnikova\pm-12\tm-client\src\main\java\com\dolnikova\tm\endpoint\RemoveProject.java
C:\Users\user\Desktop\tdolnikova\pm-12\tm-client\src\main\java\com\dolnikova\tm\endpoint\RemoveTaskResponse.java
C:\Users\user\Desktop\tdolnikova\pm-12\tm-client\src\main\java\com\dolnikova\tm\command\data\DataLoadBinCommand.java
C:\Users\user\Desktop\tdolnikova\pm-12\tm-client\src\main\java\com\dolnikova\tm\endpoint\Task.java
C:\Users\user\Desktop\tdolnikova\pm-12\tm-client\src\main\java\com\dolnikova\tm\endpoint\FindOneByIdSessionResponse.java
C:\Users\user\Desktop\tdolnikova\pm-12\tm-client\src\main\java\com\dolnikova\tm\endpoint\LoadJaxbJsonProjectResponse.java
C:\Users\user\Desktop\tdolnikova\pm-12\tm-client\src\main\java\com\dolnikova\tm\endpoint\LoadFasterxmlJsonProjectResponse.java
C:\Users\user\Desktop\tdolnikova\pm-12\tm-client\src\main\java\com\dolnikova\tm\endpoint\RemoveAllUser.java
C:\Users\user\Desktop\tdolnikova\pm-12\tm-client\src\main\java\com\dolnikova\tm\endpoint\FindAllByDescriptionTask.java
C:\Users\user\Desktop\tdolnikova\pm-12\tm-client\src\main\java\com\dolnikova\tm\endpoint\CheckPassword.java
C:\Users\user\Desktop\tdolnikova\pm-12\tm-client\src\main\java\com\dolnikova\tm\command\data\DataSaveJaxbXmlCommand.java
C:\Users\user\Desktop\tdolnikova\pm-12\tm-client\src\main\java\com\dolnikova\tm\endpoint\SaveFasterxmlJsonUser.java
C:\Users\user\Desktop\tdolnikova\pm-12\tm-client\src\main\java\com\dolnikova\tm\endpoint\FindOneBySession.java
C:\Users\user\Desktop\tdolnikova\pm-12\tm-client\src\main\java\com\dolnikova\tm\endpoint\User.java
C:\Users\user\Desktop\tdolnikova\pm-12\tm-client\src\main\java\com\dolnikova\tm\entity\AbstractEntity.java
C:\Users\user\Desktop\tdolnikova\pm-12\tm-client\src\main\java\com\dolnikova\tm\endpoint\Role.java
C:\Users\user\Desktop\tdolnikova\pm-12\tm-client\src\main\java\com\dolnikova\tm\command\project\ProjectFindAllCommand.java
C:\Users\user\Desktop\tdolnikova\pm-12\tm-client\src\main\java\com\dolnikova\tm\endpoint\GetSession.java
C:\Users\user\Desktop\tdolnikova\pm-12\tm-client\src\main\java\com\dolnikova\tm\endpoint\Exception.java
C:\Users\user\Desktop\tdolnikova\pm-12\tm-client\src\main\java\com\dolnikova\tm\endpoint\FindOneByUserIdSessionResponse.java
C:\Users\user\Desktop\tdolnikova\pm-12\tm-client\src\main\java\com\dolnikova\tm\endpoint\FindOneByUserIdSession.java
C:\Users\user\Desktop\tdolnikova\pm-12\tm-client\src\main\java\com\dolnikova\tm\command\project\ProjectRemoveCommand.java
C:\Users\user\Desktop\tdolnikova\pm-12\tm-client\src\main\java\com\dolnikova\tm\endpoint\PersistUserResponse.java
C:\Users\user\Desktop\tdolnikova\pm-12\tm-client\src\main\java\com\dolnikova\tm\endpoint\FindAllByDescriptionTaskResponse.java
C:\Users\user\Desktop\tdolnikova\pm-12\tm-client\src\main\java\com\dolnikova\tm\command\project\ProjectFindByNameCommand.java
C:\Users\user\Desktop\tdolnikova\pm-12\tm-client\src\main\java\com\dolnikova\tm\endpoint\AbstractEntity.java
