-------------------------------------------------------------------------------
Test set: com.dolnikova.tm.AppTest
-------------------------------------------------------------------------------
Tests run: 1, Failures: 0, Errors: 0, Skipped: 0, Time elapsed: 0.031 s - in com.dolnikova.tm.AppTest
